Getting started with Data
…
The data are organized in what we call a data frame, where
each row represents an observation or a case and each
column represents a variable. If you ever use spreadsheets,
such as a Google sheet or Excel, this representation should be familiar
to you.

In this lesson we’ll work with the High School and Beyond dataset,
stored in the openintro package. The data are stored in a data
frame called hsb2. You can read more about this
dataset here.
Below is a preview of the dataset. You can use the arrow on the right
hand side to scroll through the variables, and the numbers on the bottom
to see different rows in the dataset.

## # A tibble: 200 × 11
##       id gender race          ses   schtyp prog   read write  math science socst
##    <int> <chr>  <chr>         <fct> <fct>  <fct> <int> <int> <int>   <int> <int>
##  1    70 male   white         low   public gene…    57    52    41      47    57
##  2   121 female white         midd… public voca…    68    59    53      63    61
##  3    86 male   white         high  public gene…    44    33    54      58    31
##  4   141 male   white         high  public voca…    63    44    47      53    56
##  5   172 male   white         midd… public acad…    47    52    57      53    61
##  6   113 male   white         midd… public acad…    44    52    51      63    61
##  7    50 male   african amer… midd… public gene…    50    59    42      53    61
##  8    11 male   hispanic      midd… public acad…    34    46    45      39    36
##  9    84 male   white         midd… public gene…    63    57    54      58    51
## 10    48 male   african amer… midd… public acad…    57    55    52      50    51
## # … with 190 more rows
…
